{
	"info": {
		"_postman_id": "6dce92a2-cf1f-45f7-9853-4e21449e7be2",
		"name": "conexa",
		"schema": "https://schema.getpostman.com/json/collection/v2.1.0/collection.json"
	},
	"item": [
		{
			"name": "signup",
			"request": {
				"method": "POST",
				"header": [],
				"body": {
					"mode": "raw",
					"raw": "{\r\n    \"email\": \"teste@email.com.br\",\r\n    \"senha\": \"123456\",\r\n    \"confirmacaoSenha\": \"123456\",\r\n    \"especialidade\": \"cardiologista\",\r\n    \"cpf\": \"04276666007\",\r\n    \"dataNascimento\": \"2000-12-01\",\r\n    \"telefone\": \"(99) 99999-9999\"\r\n}",
					"options": {
						"raw": {
							"language": "json"
						}
					}
				},
				"url": {
					"raw": "http://localhost:8080/api/v1/signup",
					"protocol": "http",
					"host": [
						"localhost"
					],
					"port": "8080",
					"path": [
						"api",
						"v1",
						"signup"
					]
				}
			},
			"response": []
		},
		{
			"name": "attendance",
			"request": {
				"auth": {
					"type": "bearer",
					"bearer": [
						{
							"key": "token",
							"value": "eyJhbGciOiJIUzUxMiJ9.eyJzdWIiOiJ0ZXN0ZUBlbWFpbC5jb20uYnIiLCJleHAiOjE2NTA3NTgzOTh9.7l7wIQZ8NUfffIPpvMMIkg_PixfXngehjfBb23TAfw_cMo-E9ww9qwWnvE6VdT6KG36j1mHdudpZQxwwWlil7g",
							"type": "string"
						}
					]
				},
				"method": "POST",
				"header": [],
				"body": {
					"mode": "raw",
					"raw": "{\r\n  \"dataHora\": \"2022-08-03 09:00:00\",\r\n  \"paciente\": {\r\n    \"nome\": \"João Castro\",\r\n    \"cpf\": \"04276666007\"\r\n  }\r\n}\r\n",
					"options": {
						"raw": {
							"language": "json"
						}
					}
				},
				"url": {
					"raw": "http://localhost:8080/api/v1/attendance",
					"protocol": "http",
					"host": [
						"localhost"
					],
					"port": "8080",
					"path": [
						"api",
						"v1",
						"attendance"
					]
				}
			},
			"response": []
		},
		{
			"name": "login",
			"request": {
				"method": "POST",
				"header": [],
				"body": {
					"mode": "raw",
					"raw": "{\r\n    \"email\": \"teste@email.com.br\",\r\n    \"senha\": \"123456\"\r\n}",
					"options": {
						"raw": {
							"language": "json"
						}
					}
				},
				"url": {
					"raw": "http://localhost:8080/api/login",
					"protocol": "http",
					"host": [
						"localhost"
					],
					"port": "8080",
					"path": [
						"api",
						"login"
					]
				}
			},
			"response": []
		},
		{
			"name": "logoff",
			"request": {
				"auth": {
					"type": "bearer",
					"bearer": [
						{
							"key": "token",
							"value": "eyJhbGciOiJIUzUxMiJ9.eyJzdWIiOiJ0ZXN0ZUBlbWFpbC5jb20uYnIiLCJleHAiOjE2NTA3NTgzOTh9.7l7wIQZ8NUfffIPpvMMIkg_PixfXngehjfBb23TAfw_cMo-E9ww9qwWnvE6VdT6KG36j1mHdudpZQxwwWlil7g",
							"type": "string"
						}
					]
				},
				"method": "DELETE",
				"header": [],
				"body": {
					"mode": "raw",
					"raw": "{\r\n    \"email\": \"teste@email.com.br\",\r\n    \"senha\": \"123456\"\r\n}",
					"options": {
						"raw": {
							"language": "json"
						}
					}
				},
				"url": {
					"raw": "http://localhost:8080/api/v1/logoff",
					"protocol": "http",
					"host": [
						"localhost"
					],
					"port": "8080",
					"path": [
						"api",
						"v1",
						"logoff"
					]
				}
			},
			"response": []
		}
	]
}